﻿Titles,Playtime
Dota 2,"""P0M0DT142647829380S"""
Counter-Strike: Source,"""P0M0DT118566987600S"""
Team Fortress 2,"""P0M0DT96813787440S"""
Left 4 Dead 2,"""P0M0DT29559886080S"""
Left 4 Dead,"""P0M0DT16588930140S"""
Portal 2,"""P0M0DT5895171420S"""
Half-Life 2,"""P0M0DT4948083360S"""
Half-Life,"""P0M0DT2927860800S"""
Portal,"""P0M0DT1999290840S"""
Half-Life 2: Episode Two,"""P0M0DT1289022780S"""